{
    "version": 1.19,
    "data": {
        "enabled": true,
        "stream": false,
        "lNotice": false,
        "gNotice": false,
        "spawnObject": true,
        "speech": {
            "enabled": false,
            "rate": 2,
            "volume": 100,
            "gender": "female"
        },
        "cc": [
            "</font><font color=\"#ffff00\">"
        ],
        "language": "auto",
        "dungeons": {
            "3023": {
                "name": "Akalath Quarantine",
                "verbose": false,
                "spawnObject": false
            },
            "3026": {
                "name": "Corrupted Skynest",
                "verbose": true,
                "spawnObject": true
            },
            "3027": {
                "name": "Forbidden Arena [Hagufna]",
                "verbose": false,
                "spawnObject": false
            },
            "3030": {
                "name": "Commander's Residence",
                "verbose": true,
                "spawnObject": true
            },
            "3032": {
                "verbose": true,
                "spawnObject": true
            },
            "3034": {
                "name": "Rampaging RK-9 Kennel",
                "verbose": true,
                "spawnObject": true
            },
            "3036": {
                "name": "Sky Cruiser (Hard)",
                "verbose": false,
                "spawnObject": false
            },
            "3037": {
                "verbose": true,
                "spawnObject": true
            },
            "3040": {
                "name": "Lumikan's Trial",
                "verbose": false,
                "spawnObject": false
            },
            "3042": {
                "name": "Gardan's Trial",
                "verbose": false,
                "spawnObject": false
            },
            "3043": {
                "name": "Harnovog's Trial",
                "verbose": false,
                "spawnObject": false
            },
            "3046": {
                "name": "Rogash's Trial",
                "verbose": false,
                "spawnObject": false
            },
            "3047": {
                "verbose": true,
                "spawnObject": true
            },
            "3101": {
                "verbose": true,
                "spawnObject": true
            },
            "3102": {
                "name": "Draakon Arena",
                "verbose": false,
                "spawnObject": true
            },
            "3103": {
                "name": "Forbidden Arena [Undying Warlord]",
                "verbose": true,
                "spawnObject": true
            },
            "3105": {
                "verbose": true,
                "spawnObject": true
            },
            "3108": {
                "verbose": true,
                "spawnObject": true
            },
            "3109": {
                "verbose": true,
                "spawnObject": true
            },
            "3126": {
                "name": "Corrupted Skynest (Hard) Entrance",
                "verbose": true,
                "spawnObject": true
            },
            "3201": {
                "name": "Gossamer Vault (Hard)",
                "verbose": false,
                "spawnObject": false
            },
            "3202": {
                "name": "Draakon Arena (Hard)",
                "verbose": true,
                "spawnObject": true
            },
            "3203": {
                "name": "Forbidden Arena [Nightmare Undying Warlord]",
                "verbose": true,
                "spawnObject": true
            },
            "3209": {
                "verbose": true,
                "spawnObject": true
            },
            "7011": {
                "name": "Shadow of the Gutrends (Guardian)",
                "verbose": false,
                "spawnObject": false
            },
            "7015": {
                "name": "Escape from Balder's Refuge (Guardian)",
                "verbose": false,
                "spawnObject": false
            },
            "9027": {
                "name": "The Plexus (Hard)",
                "verbose": false,
                "spawnObject": false
            },
            "9044": {
                "name": "Bahaar's Sanctum",
                "verbose": false,
                "spawnObject": false
            },
            "9054": {
                "name": "Bathysmal Rise (Hard)",
                "verbose": false,
                "spawnObject": false
            },
            "9056": {
                "verbose": true,
                "spawnObject": true
            },
            "9057": {
                "name": "Akeron's Inferno (Hard)",
                "verbose": false,
                "spawnObject": false
            },
            "9066": {
                "verbose": true,
                "spawnObject": true
            },
            "9067": {
                "verbose": true,
                "spawnObject": true,
                "name": "Demokron Factory (Hard)"
            },
            "9068": {
                "verbose": true,
                "spawnObject": true
            },
            "9070": {
                "verbose": true,
                "spawnObject": true,
                "name": "Manglemire"
            },
            "9716": {
                "name": "Sky Cruiser Endeavor",
                "verbose": false,
                "spawnObject": false
            },
            "9720": {
                "verbose": true,
                "spawnObject": true
            },
            "9735": {
                "name": "RK-9 Kennel",
                "verbose": false,
                "spawnObject": false
            },
            "9739": {
                "name": "Red Refuge",
                "verbose": false,
                "spawnObject": false
            },
            "9754": {
                "name": "Bathysmal Rise",
                "verbose": false,
                "spawnObject": false
            },
            "9757": {
                "name": "Akeron's Inferno",
                "verbose": false,
                "spawnObject": false
            },
            "9759": {
                "verbose": true,
                "spawnObject": true
            },
            "9770": {
                "name": "Ruinous Manor",
                "verbose": false,
                "spawnObject": false
            },
            "9780": {
                "name": "Velik's Hold (5-Person)",
                "verbose": false,
                "spawnObject": false
            },
            "9781": {
                "name": "Velik's Sanctuary",
                "verbose": false,
                "spawnObject": false
            },
            "9782": {
                "verbose": true,
                "spawnObject": true
            },
            "9794": {
                "name": "Thaumetal Refinery",
                "verbose": false,
                "spawnObject": false
            },
            "9916": {
                "name": "Sky Cruiser Endeavor (Hard)",
                "verbose": false,
                "spawnObject": false
            },
            "9920": {
                "name": "Antaroth's Abyss (Hard)",
                "verbose": false,
                "spawnObject": false
            },
            "9935": {
                "verbose": true,
                "spawnObject": true
            },
            "9970": {
                "name": "Ruinous Manor (Hard)",
                "verbose": false,
                "spawnObject": false
            },
            "9981": {
                "verbose": true,
                "spawnObject": true
            },
            "9982": {
                "name": "Grotto of Lost Souls (Hard)",
                "verbose": false,
                "spawnObject": false
            },
            "9983": {
                "verbose": true,
                "spawnObject": true
            }
        },
        "debug": {
            "chat": true,
            "all": false,
            "s": false,
            "e": false,
            "am": false,
            "ae": false,
            "ab": false,
            "ar": false,
            "ad": false,
            "h": false,
            "ns": false,
            "nd": false,
            "rb": false,
            "re": false,
            "dm": false,
            "qb": false,
            "ap": false,
            "af": false,
            "at": false
        }
    }
}