{
	"enable": true,
	"debug": false,
	"bg": false,
	"bg_description": "Enable/disable usage in bgs.",
	"time": 1200,
	"time_description": "The amount of time you are invincible in ms.",
	"effect": 2060,
	"effect_description": "Effect id to apply while invincible."
}