{
    "version": 4,
    "data": {
        "autoServant": true,
        "servantUseAt": 50,
        "servantFoods": [
            206046,
            206047,
            206048
        ],
        "servantGifts": [
            206049,
            206050,
            206051
        ],
        "shake": false,
        "power": 1,
        "speed": 1,
        "autoLoot": true,
        "revive": true,
        "party": false,
        "drama": false,
        "exit": true,
        "retaliate": true,
        "lootBlack": true,
        "lootBlackList": [
            7214,
            8000,
            8001,
            8002,
            8003,
            8004,
            8005,
            8008,
            8009,
            8010,
            8011,
            8012,
            8013,
            8014,
            8015,
            8016,
            8017,
            8018,
            8019,
            8020,
            8021,
            8022,
            8023,
            221212,
            88827,
            88828,
            88829,
            88830,
            88831,
            88832,
            88833,
            88834,
            88835,
            88836
        ],
        "loopInterval": 350,
        "flyMore": true,
        "unLockFlying": true,
        "redirect": false,
        "redirectInfo": [
            {
                "zone": 9032,
                "loc": [
                    28200,
                    179815,
                    -1670
                ],
                "w": -2,
                "name": "Ace Dungeon Braco's Trial"
            },
            {
                "zone": 9031,
                "loc": [
                    72487,
                    134052,
                    -503
                ],
                "w": 2,
                "name": "Ace Dungeon akasha's Trial"
            },
            {
                "zone": 9714,
                "loc": [
                    -10644,
                    -7847,
                    -9855
                ],
                "w": -2,
                "name": "Ghillieglade"
            }
        ],
        "cameraControl": true,
        "setDistance": 500,
        "consumables": true,
        "consumablesInfo": [
            {
                "ID": 920,
                "itemId": 200920,
                "msg": "uncommon Noctenium Elixir"
            },
            {
                "ID": 921,
                "itemId": 200921,
                "msg": "Rare Noctenium Elixir"
            },
            {
                "ID": 922,
                "itemId": 200922,
                "msg": "Superior Noctenium Elixir"
            },
            {
                "ID": 4000,
                "itemId": 0,
                "msg": "Minor battle Solution"
            },
            {
                "ID": 4001,
                "itemId": 0,
                "msg": "Minor battle Solution"
            },
            {
                "ID": 4004,
                "itemId": 0,
                "msg": "Minor battle Solution"
            },
            {
                "ID": 4010,
                "itemId": 0,
                "msg": "Major battle Solution"
            },
            {
                "ID": 4011,
                "itemId": 0,
                "msg": "Major battle Solution"
            },
            {
                "ID": 4014,
                "itemId": 0,
                "msg": "Major battle Solution"
            },
            {
                "ID": 4020,
                "itemId": 200999,
                "msg": "Prime battle Solution"
            },
            {
                "ID": 4021,
                "itemId": 0,
                "msg": "Prime battle Solution"
            },
            {
                "ID": 4024,
                "itemId": 0,
                "msg": "Prime battle Solution"
            },
            {
                "ID": 4030,
                "itemId": 0,
                "msg": "Everful Nostrum"
            },
            {
                "ID": 4031,
                "itemId": 0,
                "msg": "Everful Nostrum"
            },
            {
                "ID": 4040,
                "itemId": 0,
                "msg": "Everful Nostrum"
            },
            {
                "ID": 4610,
                "itemId": 396,
                "msg": "Alliance Supplies: Complete CrystalBind"
            },
            {
                "ID": 4610,
                "itemId": 48003,
                "msg": "Complete CrystalBind"
            },
            {
                "ID": 4610,
                "itemId": 70000,
                "msg": "Complete crystalBind (can be trade)"
            },
            {
                "ID": 4612,
                "itemId": 98526,
                "msg": "Alliance Supplies: Complete-CrystalBind (1hour)"
            },
            {
                "ID": 4612,
                "itemId": 98569,
                "msg": "Complete-CrystalBind (1hour)"
            },
            {
                "ID": 4615,
                "itemId": 98570,
                "msg": "Alliance Supplies: Complete-CrystalBind (3hours)"
            },
            {
                "ID": 4615,
                "itemId": 98571,
                "msg": "Complete-CrystalBind (3hours)"
            },
            {
                "ID": 4616,
                "itemId": 98572,
                "msg": "Alliance Supplies: Complete-CrystalBind (6hours)"
            },
            {
                "ID": 4616,
                "itemId": 98573,
                "msg": "Complete-CrystalBind (6hours)"
            },
            {
                "ID": 4830,
                "itemId": 444,
                "msg": "(Old) bravery"
            },
            {
                "ID": 4830,
                "itemId": 202015,
                "msg": "Bravery"
            },
            {
                "ID": 4831,
                "itemId": 0,
                "msg": "Bravery (Superior)"
            },
            {
                "ID": 4833,
                "itemId": 0,
                "msg": "Bravery"
            },
            {
                "ID": 70231,
                "itemId": 71418,
                "msg": "Roast lamb"
            },
            {
                "ID": 70231,
                "itemId": 88800,
                "msg": "Joint Supply: Roasted Lamb"
            },
            {
                "ID": 70231,
                "itemId": 201223,
                "msg": "[Event] Roast Lamb"
            }
        ],
        "abnormalityBlack": true,
        "abnormalityBlacklist": [
            48732,
            48734,
            48735,
            48736,
            48737,
            48738,
            70251,
            70252,
            70253,
            70254,
            70255,
            476806,
            630201,
            630202,
            630411,
            630511,
            631002,
            631003,
            631201,
            631202,
            776017,
            806001,
            806002,
            811061,
            821101,
            905656,
            905657,
            7102001,
            45000011,
            45000012,
            47660800,
            47660900,
            47661000,
            47662300,
            999001011
        ],
        "afk": true,
        "inspect": true,
        "sutsceneSkip": true,
        "socialAnimation": true,
        "artisanIcons": true,
        "spawnMotesInfo": [
            8008,
            8009,
            8010,
            8011,
            8012,
            8013,
            8014,
            8015,
            8016,
            8017,
            8018,
            8019,
            8020,
            8021,
            8022,
            8023
        ],
        "spawnNPC": true,
        "spawnNpcInfo": [
            {
                "Zone": 1023,
                "ID": 10235014
            },
            {
                "Zone": 1023,
                "ID": 10235015
            },
            {
                "Zone": 1023,
                "ID": 10235017
            },
            {
                "Zone": 1023,
                "ID": 10235016
            },
            {
                "Zone": 1023,
                "ID": 10235004
            },
            {
                "Zone": 1023,
                "ID": 10235005
            },
            {
                "Zone": 1023,
                "ID": 10235006
            },
            {
                "Zone": 1023,
                "ID": 10235007
            },
            {
                "Zone": 1023,
                "ID": 10235008
            },
            {
                "Zone": 1023,
                "ID": 10235009
            },
            {
                "Zone": 1023,
                "ID": 10235010
            },
            {
                "Zone": 1023,
                "ID": 10235011
            },
            {
                "Zone": 1023,
                "ID": 10235012
            },
            {
                "Zone": 1023,
                "ID": 10235013
            },
            {
                "Zone": 1023,
                "ID": 10236001
            },
            {
                "Zone": 1023,
                "ID": 10236002
            },
            {
                "Zone": 1023,
                "ID": 10236003
            },
            {
                "Zone": 1023,
                "ID": 10236004
            },
            {
                "Zone": 1023,
                "ID": 10236005
            },
            {
                "Zone": 1023,
                "ID": 10236006
            },
            {
                "Zone": 1023,
                "ID": 10236007
            },
            {
                "Zone": 1023,
                "ID": 10236008
            },
            {
                "Zone": 1023,
                "ID": 10236009
            },
            {
                "Zone": 1023,
                "ID": 10236010
            },
            {
                "Zone": 1023,
                "ID": 10236011
            },
            {
                "Zone": 1023,
                "ID": 10236012
            },
            {
                "Zone": 1023,
                "ID": 10236013
            },
            {
                "Zone": 1023,
                "ID": 10236014
            },
            {
                "Zone": 1023,
                "ID": 10236015
            },
            {
                "Zone": 1023,
                "ID": 10237003
            },
            {
                "Zone": 1023,
                "ID": 10237004
            },
            {
                "Zone": 1023,
                "ID": 10237005
            },
            {
                "Zone": 1023,
                "ID": 10237006
            },
            {
                "Zone": 1023,
                "ID": 10237007
            },
            {
                "Zone": 1023,
                "ID": 10237008
            },
            {
                "Zone": 1023,
                "ID": 10237009
            },
            {
                "Zone": 1023,
                "ID": 10237010
            },
            {
                "Zone": 1023,
                "ID": 10237011
            },
            {
                "Zone": 1023,
                "ID": 10237012
            },
            {
                "Zone": 1023,
                "ID": 10237013
            },
            {
                "Zone": 1023,
                "ID": 10237014
            },
            {
                "Zone": 1023,
                "ID": 10237015
            },
            {
                "Zone": 1023,
                "ID": 10238001
            },
            {
                "Zone": 1023,
                "ID": 10238002
            },
            {
                "Zone": 1023,
                "ID": 10238003
            },
            {
                "Zone": 1023,
                "ID": 10238004
            },
            {
                "Zone": 1023,
                "ID": 10238005
            },
            {
                "Zone": 1023,
                "ID": 10238006
            },
            {
                "Zone": 1023,
                "ID": 10238007
            },
            {
                "Zone": 1023,
                "ID": 10238008
            },
            {
                "Zone": 1023,
                "ID": 30301001
            },
            {
                "Zone": 1023,
                "ID": 30301002
            },
            {
                "Zone": 1023,
                "ID": 30301003
            },
            {
                "Zone": 1023,
                "ID": 30301004
            },
            {
                "Zone": 1023,
                "ID": 30302001
            },
            {
                "Zone": 1023,
                "ID": 30303001
            },
            {
                "Zone": 1023,
                "ID": 30302002
            },
            {
                "Zone": 1023,
                "ID": 30303002
            },
            {
                "Zone": 1023,
                "ID": 30302003
            },
            {
                "Zone": 1023,
                "ID": 30303003
            },
            {
                "Zone": 1023,
                "ID": 30302004
            },
            {
                "Zone": 1023,
                "ID": 30303004
            },
            {
                "Zone": 1023,
                "ID": 30302005
            },
            {
                "Zone": 1023,
                "ID": 30303005
            },
            {
                "Zone": 1023,
                "ID": 30302006
            },
            {
                "Zone": 1023,
                "ID": 30303006
            },
            {
                "Zone": 1023,
                "ID": 30302007
            },
            {
                "Zone": 1023,
                "ID": 30303007
            },
            {
                "Zone": 1023,
                "ID": 12345
            },
            {
                "Zone": 1023,
                "ID": 1100100
            },
            {
                "Zone": 1023,
                "ID": 1100101
            },
            {
                "Zone": 1023,
                "ID": 2010100
            },
            {
                "Zone": 1023,
                "ID": 2010101
            }
        ],
        "collectBalls": true,
        "deadAnimation": true,
        "archerTraps": true,
        "trapSkills": [
            67259584,
            67199584,
            67209284,
            67339084,
            67359884
        ],
        "successChance": true,
        "damageNumber": true,
        "damageNumberMe": true,
        "healNumber": true,
        "healNumberMe": true,
        "mpNumber": true,
        "mpNumberMe": true,
        "lockonYouMsg": true,
        "noMoteCancel": true,
        "noBodyBlock": true,
        "vanguard": true,
        "guildQuest": false,
        "spawnMotes": true,
        "findItemID": true,
        "findMonsterID": true
    }
}