{
  "runtimeOptions": {
    "tfm": "net6.0",
    "rollForward": "LatestMajor",
    "framework": {
      "name": "Microsoft.NETCore.App",
      "version": "6.0.0"
    },
    "configProperties": {
      "System.GC.Server": true
    }
  }
}